{
  "schemaVersion": 1,
  "id": "vego",
  "version": "${version}",

  "name": "Vego",
  "description": "This is an example description! Tell everyone what your mod is about!",
  "authors": [
    "SuperEwald"
  ],
  "contact": {
    "homepage": "https://fabricmc.net/",
    "sources": "https://github.com/FabricMC/fabric-example-mod"
  },

  "license": "CC0-1.0",
  "icon": "assets/modid/icon.png",

  "environment": "*",
  "entrypoints": {
    "main": [
      "net.superewald.vego.Vego"
    ],
    "client": [
      "net.superewald.vego.VegoClient"
    ]
  },
  "mixins": [
    "vego.mixins.json"
  ],

  "depends": {
    "fabricloader": ">=0.14.9",
    "fabric-api": "*",
    "minecraft": "~1.19",
    "java": ">=17"
  },
  "suggests": {
    "another-mod": "*"
  }
}
