{
  "required": true,
  "minVersion": "0.8",
  "package": "net.superewald.vego.mixin",
  "compatibilityLevel": "JAVA_17",
  "mixins": [
  ],
  "client": [
    "VegoMixin"
  ],
  "injectors": {
    "defaultRequire": 1
  }
}
